STAT570 HW2
…
But str_match() returns a matrix, so it’s not particularly easy to work with. You could convert to a tibble and name the columns:

sentences |> 
  str_match("the (\\w+) (\\w+)") |> 
  as_tibble(.name_repair = "minimal") |> 
  set_names("match", "word1", "word2")

# A tibble: 720 × 3
   match             word1  word2 
   <chr>             <chr>  <chr> 
 1 the smooth planks smooth planks
 2 the sheet to      sheet  to    
 3 the depth of      depth  of    
 4 <NA>              <NA>   <NA>  
 5 <NA>              <NA>   <NA>  
 6 <NA>              <NA>   <NA>  
 7 the parked truck  parked truck 
 8 <NA>              <NA>   <NA>  
 9 <NA>              <NA>   <NA>  
10 <NA>              <NA>   <NA>  
# ℹ 710 more rows
…
